verify/utb/EF_DAC1001_DI_ahbl_tb.vcd
$date
	Mon Sep  4 17:49:08 2023
$end
$version
	Icarus Verilog
$end
$timescale
	1ps
$end
$scope module EF_ADCS1008A_ahbl_tb $end
$var wire 1 ! DVDD $end
$var wire 1 " DVSS $end
$var wire 1 # HREADY $end
$var wire 1 $ HREADYOUT $end
$var wire 1 % VDD $end
$var wire 1 & VSS $end
$var wire 1 ' sample_n $end
$var wire 1 ( irq $end
$var wire 1 ) cmp $end
$var wire 3 * ch_sel [2:0] $end
$var wire 10 + adc_data [9:0] $end
$var wire 32 , HRDATA [31:0] $end
$var reg 32 - HADDR [31:0] $end
$var reg 1 . HCLK $end
$var reg 1 / HRESETn $end
$var reg 1 0 HSEL $end
$var reg 3 1 HSIZE [2:0] $end
$var reg 2 2 HTRANS [1:0] $end
$var reg 32 3 HWDATA [31:0] $end
$var reg 1 4 HWRITE $end
$var real 1 5 VH $end
$var real 1 6 VL $end
$var real 1 7 in0 $end
$var real 1 8 in1 $end
$var real 1 9 in2 $end
$var real 1 : in3 $end
$var real 1 ; in4 $end
$var real 1 < in5 $end
$var real 1 = in6 $end
$var real 1 > in7 $end
$scope module ADC_ANA $end
$var wire 1 ? b0 $end
$var wire 1 @ b1 $end
$var wire 1 A b2 $end
$var wire 1 ' hold $end
$var wire 10 B data [9:0] $end
$var wire 1 ) cmp $end
$var real 1 C DVDD $end
$var real 1 D DVSS $end
$var real 1 E VDD $end
$var real 1 F VH $end
$var real 1 G VL $end
$var real 1 H VSS $end
$var real 1 I held_value $end
$var real 1 J in0 $end
$var real 1 K in1 $end
$var real 1 L in2 $end
$var real 1 M in3 $end
$var real 1 N in4 $end
$var real 1 O in5 $end
$var real 1 P in6 $end
$var real 1 Q in7 $end
$var real 1 R dac_out $end
$var real 1 S a_mux $end
$upscope $end
$scope module muv $end
$var wire 10 T DATA_REG [9:0] $end
$var wire 32 U HADDR [31:0] $end
$var wire 1 . HCLK $end
$var wire 1 # HREADY $end
$var wire 1 $ HREADYOUT $end
$var wire 1 / HRESETn $end
$var wire 1 0 HSEL $end
$var wire 3 V HSIZE [2:0] $end
$var wire 2 W HTRANS [1:0] $end
$var wire 32 X HWDATA [31:0] $end
$var wire 1 4 HWRITE $end
$var wire 3 Y MIS_REG [2:0] $end
$var wire 1 Z _EOC_FLAG_ $end
$var wire 1 [ _FIFO_FULL_FLAG_ $end
$var wire 1 \ _FIFO_LEVEL_FLAG_ $end
$var wire 1 ] _clk_ $end
$var wire 1 ^ _rst_ $end
$var wire 1 _ ahbl_re $end
$var wire 1 ` ahbl_valid $end
$var wire 1 a ahbl_we $end
$var wire 3 b ch_sel_in [2:0] $end
$var wire 1 ) cmp $end
$var wire 5 c fifo_threshold [4:0] $end
$var wire 1 d rd $end
$var wire 1 e soc $end
$var wire 4 f swidth [3:0] $end
$var wire 1 g seq_en $end
$var wire 5 h seq7 [4:0] $end
$var wire 5 i seq6 [4:0] $end
$var wire 5 j seq5 [4:0] $end
$var wire 5 k seq4 [4:0] $end
$var wire 5 l seq3 [4:0] $end
$var wire 5 m seq2 [4:0] $end
$var wire 5 n seq1 [4:0] $end
$var wire 5 o seq0 [4:0] $end
$var wire 1 ' sample_n $end
$var wire 8 p sample_div [7:0] $end
$var wire 1 ( irq $end
$var wire 1 q fifo_full $end
$var wire 1 r fifo_above $end
$var wire 1 s eoc $end
$var wire 1 t en $end
$var wire 10 u data [9:0] $end
$var wire 8 v clkdiv [7:0] $end
$var wire 3 w ch_sel_out [2:0] $end
$var wire 10 x adc_data [9:0] $end
$var wire 32 y HRDATA [31:0] $end
$var reg 3 z CHSEL_REG [2:0] $end
$var reg 2 { CTRL_REG [1:0] $end
$var reg 5 | FIFOLEVEL_REG [4:0] $end
$var reg 3 } ICR_REG [2:0] $end
$var reg 3 ~ IM_REG [2:0] $end
$var reg 3 !" RIS_REG [2:0] $end
$var reg 32 "" SEQCTRL0_REG [31:0] $end
$var reg 32 #" SEQCTRL1_REG [31:0] $end
$var reg 1 $" SOC_REG $end
$var reg 32 %" TCTRL_REG [31:0] $end
$var reg 32 &" last_HADDR [31:0] $end
$var reg 1 '" last_HSEL $end
$var reg 2 (" last_HTRANS [1:0] $end
$var reg 1 )" last_HWRITE $end
$scope module inst_to_wrap $end
$var wire 10 *" adc_data [9:0] $end
$var wire 3 +" ch_sel_in [2:0] $end
$var wire 1 ] clk $end
$var wire 8 ," clkdiv [7:0] $end
$var wire 1 ) cmp $end
$var wire 10 -" data [9:0] $end
$var wire 1 t en $end
$var wire 1 ." fifo_rd $end
$var wire 5 /" fifo_threshold [4:0] $end
$var wire 1 0" fifo_wr $end
$var wire 1 d rd $end
$var wire 1 1" rst_n $end
$var wire 8 2" sample_div [7:0] $end
$var wire 5 3" seq0 [4:0] $end
$var wire 5 4" seq1 [4:0] $end
$var wire 5 5" seq2 [4:0] $end
$var wire 5 6" seq3 [4:0] $end
$var wire 5 7" seq4 [4:0] $end
$var wire 5 8" seq5 [4:0] $end
$var wire 5 9" seq6 [4:0] $end
$var wire 5 :" seq7 [4:0] $end
$var wire 1 g seq_en $end
$var wire 1 e soc $end
$var wire 1 ;" soc_edge $end
$var wire 4 <" swidth [3:0] $end
$var wire 1 =" start_of_conv $end
$var wire 1 >" seq_skip $end
$var wire 1 ?" seq_end $end
$var wire 3 @" seq_ch [2:0] $end
$var wire 5 A" seq [4:0] $end
$var wire 1 ' sample_n $end
$var wire 1 B" sample_en $end
$var wire 10 C" fifo_wdata [9:0] $end
$var wire 10 D" fifo_rdata [9:0] $end
$var wire 5 E" fifo_level [4:0] $end
$var wire 1 q fifo_full $end
$var wire 1 F" fifo_empty $end
$var wire 1 r fifo_above $end
$var wire 1 s eoc $end
$var wire 1 G" clken $end
$var wire 3 H" ch_sel_out [2:0] $end
$var reg 1 I" fifo_wr_reg $end
$var reg 2 J" last_soc [1:0] $end
$var reg 3 K" seq_ctr [2:0] $end
$var reg 1 L" seq_soc $end
$scope module ADCFIFO $end
$var wire 1 ] clk $end
$var wire 1 F" empty $end
$var wire 1 q full $end
$var wire 10 M" r_data [9:0] $end
$var wire 1 ." rd $end
$var wire 1 1" rst_n $end
$var wire 1 N" w_en $end
$var wire 1 0" wr $end
$var wire 10 O" w_data [9:0] $end
$var wire 5 P" level [4:0] $end
$var reg 1 Q" empty_next $end
$var reg 1 R" empty_reg $end
$var reg 1 S" full_next $end
$var reg 1 T" full_reg $end
$var reg 5 U" level_next [4:0] $end
$var reg 5 V" level_reg [4:0] $end
$var reg 5 W" r_ptr_next [4:0] $end
$var reg 5 X" r_ptr_reg [4:0] $end
$var reg 5 Y" r_ptr_succ [4:0] $end
$var reg 5 Z" w_ptr_next [4:0] $end
$var reg 5 [" w_ptr_reg [4:0] $end
$var reg 5 \" w_ptr_succ [4:0] $end
$upscope $end
$scope module CDIV $end
$var wire 1 ] clk $end
$var wire 8 ]" clkdiv [7:0] $end
$var wire 1 G" clko $end
$var wire 1 t en $end
$var wire 1 1" rst_n $end
$var wire 1 ^" clkdiv_match $end
$var reg 8 _" clkdiv_ctr [7:0] $end
$var reg 1 G" clken $end
$upscope $end
$scope module SAR $end
$var wire 1 ] clk $end
$var wire 1 ) cmp $end
$var wire 1 G" en $end
$var wire 1 1" rst_n $end
$var wire 1 ;" soc $end
$var wire 4 `" swidth [3:0] $end
$var wire 1 ' sample_n $end
$var wire 1 a" sample_ctr_match $end
$var wire 10 b" next [9:0] $end
$var wire 1 s eoc $end
$var wire 10 c" data [9:0] $end
$var wire 10 d" current [9:0] $end
$var reg 2 e" nstate [1:0] $end
$var reg 10 f" result [9:0] $end
$var reg 4 g" sample_ctr [3:0] $end
$var reg 10 h" shift [9:0] $end
$var reg 2 i" state [1:0] $end
$upscope $end
$scope module SDIV $end
$var wire 1 ] clk $end
$var wire 8 j" clkdiv [7:0] $end
$var wire 1 B" clko $end
$var wire 1 k" en $end
$var wire 1 1" rst_n $end
$var wire 1 l" clkdiv_match $end
$var reg 8 m" clkdiv_ctr [7:0] $end
$var reg 1 n" clken $end
$upscope $end
$upscope $end
$upscope $end
$scope task AHB_READ_BYTE $end
$var reg 32 o" ADDR [31:0] $end
$var reg 8 p" data [7:0] $end
$scope begin task_body $end
$upscope $end
$upscope $end
$scope task AHB_READ_HALF $end
$var reg 32 q" ADDR [31:0] $end
$var reg 16 r" data [15:0] $end
$scope begin task_body $end
$upscope $end
$upscope $end
$scope task AHB_READ_WORD $end
$var reg 32 s" ADDR [31:0] $end
$var reg 32 t" data [31:0] $end
$scope begin task_body $end
$upscope $end
$upscope $end
$scope task AHB_WRITE_BYTE $end
$var reg 32 u" ADDR [31:0] $end
$var reg 8 v" data [7:0] $end
$scope begin task_body $end
$upscope $end
$upscope $end
$scope task AHB_WRITE_HALF $end
$var reg 32 w" ADDR [31:0] $end
$var reg 16 x" data [15:0] $end
$scope begin task_body $end
$upscope $end
$upscope $end
$scope task AHB_WRITE_READ_WORD $end
$var reg 32 y" RADDR [31:0] $end
$var reg 32 z" RDATA [31:0] $end
$var reg 32 {" WADDR [31:0] $end
$var reg 32 |" WDATA [31:0] $end
$scope begin task_body $end
$upscope $end
$upscope $end
$scope task AHB_WRITE_WORD $end
$var reg 32 }" ADDR [31:0] $end
$var reg 32 ~" data [31:0] $end
$scope begin task_body $end
$upscope $end
$upscope $end
$upscope $end
$enddefinitions $end
#0
$dumpvars
bx ~"
bx }"
bx |"
bx {"
bx z"
bx y"
bx x"
bx w"
bx v"
bx u"
bx t"
bx s"
bx r"
bx q"
bx p"
bx o"
0n"
b0 m"
1l"
0k"
b0 j"
b0 i"
bx h"
b0 g"
bx f"
b0 e"
bx d"
bx c"
b0xxxxxxxxx b"
1a"
b0 `"
b0 _"
1^"
b0 ]"
b1 \"
b0 ["
b0 Z"
b1 Y"
b0 X"
b0 W"
b0 V"
b0 U"
0T"
0S"
1R"
1Q"
b0 P"
bx O"
0N"
bx M"
0L"
b111 K"
b0 J"
0I"
b0 H"
0G"
1F"
b0 E"
bx D"
bx C"
0B"
b0 A"
b0 @"
0?"
0>"
0="
b0 <"
0;"
b0 :"
b0 9"
b0 8"
b0 7"
b0 6"
b0 5"
b0 4"
b0 3"
b0 2"
01"
00"
b0 /"
x."
bx -"
b0 ,"
b0 +"
bx *"
x)"
bx ("
x'"
bx &"
b0 %"
0$"
b0 #"
b0 ""
b0 !"
b0 ~
b0 }
b0 |
b0 {
b0 z
bx0xxxx0x0x0xx0xx0xxxxxxxxxxxxxx y
bx x
b0 w
b0 v
bx u
0t
0s
0r
0q
b0 p
b0 o
b0 n
b0 m
b0 l
b0 k
b0 j
b0 i
b0 h
0g
b0 f
0e
xd
b0 c
b0 b
xa
x`
x_
1^
0]
0\
0[
0Z
b0 Y
bx X
b0 W
bx V
bx U
bx T
r0.5 S
r0 R
r3.2 Q
r3.1 P
r3 O
r2.5 N
r2 M
r1.5 L
r1 K
r0.5 J
r0 I
r0 H
r0 G
r2.048 F
r0 E
r0 D
r0 C
bx B
0A
0@
0?
r3.2 >
r3.1 =
r3 <
r2.5 ;
r2 :
r1.5 9
r1 8
r0.5 7
r0 6
r2.048 5
04
bx 3
b0 2
bx 1
10
0/
0.
bx -
bx0xxxx0x0x0xx0xx0xxxxxxxxxxxxxx ,
bx +
b0 *
0)
0(
1'
z&
z%
1$
1#
z"
z!
$end
#25000
0."
0d
0_
0`
0a
b0 ("
0)"
1'"
1]
1.
#50000
0]
0.
#75000
1]
1.
#100000
0]
0.
#125000
1]
1.
#150000
0]
0.
#175000
1]
1.
#200000
0]
0.
#225000
1]
1.
#250000
0]
0.
#275000
1]
1.
#300000
0]
0.
#325000
1]
1.
#350000
0]
0.
#375000
1]
1.
#400000
0]
0.
#425000
1]
1.
#450000
0]
0.
#475000
1]
1.
#500000
0]
0.
#525000
1]
1.
#550000
0]
0.
#575000
1]
1.
#600000
0]
0.
#625000
1]
1.
#650000
0]
0.
#675000
1]
1.
#700000
0]
0.
#725000
1]
1.
#750000
0]
0.
#775000
1]
1.
#800000
0]
0.
#825000
1]
1.
#850000
0]
0.
#875000
1]
1.
#900000
0]
0.
#925000
1]
1.
#950000
0]
0.
#975000
1]
1.
#1000000
0]
0.
#1025000
11"
0^
1/
1]
1.
#1050000
0]
0.
#1075000
1G"
1B"
1n"
1]
1.
#1100000
0]
0.
#1125000
b111111111 d"
b100000000 b"
b0 K"
0B"
0n"
0G"
b1000000000 h"
r1.024 R
b1000000000 +
b1000000000 B
b1000000000 x
b1000000000 *"
b1000000000 C"
b1000000000 O"
b1000000000 c"
b1000000000 f"
1L"
1]
1.
#1150000
0]
0.
#1175000
1G"
1B"
1n"
1]
1.
#1200000
0]
0.
#1225000
b1 K"
0B"
0n"
0G"
1]
1.
#1250000
0]
0.
#1275000
1G"
1B"
1n"
1]
1.
#1300000
0]
0.
#1325000
b10 K"
0B"
0n"
0G"
1]
1.
#1350000
0]
0.
#1375000
1G"
1B"
1n"
1]
1.
#1400000
0]
0.
#1425000
b11 K"
0B"
0n"
0G"
1]
1.
#1450000
0]
0.
#1475000
1G"
1B"
1n"
1]
1.
#1500000
0]
0.
#1525000
b100 K"
0B"
0n"
0G"
1]
1.
#1550000
0]
0.
#1575000
1G"
1B"
1n"
1]
1.
#1600000
0]
0.
#1625000
b101 K"
0B"
0n"
0G"
1]
1.
#1650000
0]
0.
#1675000
1G"
1B"
1n"
1]
1.
#1700000
0]
0.
#1725000
b110 K"
0B"
0n"
0G"
1]
1.
#1750000
0]
0.
#1775000
1G"
1B"
1n"
1]
1.
#1800000
0]
0.
#1825000
b111 K"
0B"
0n"
0G"
1]
1.
#1850000
0]
0.
#1875000
1G"
1B"
1n"
1]
1.
#1900000
0]
0.
#1925000
b0 K"
0B"
0n"
0G"
1]
1.
#1950000
0]
0.
#1975000
1G"
1B"
1n"
1]
1.
#2000000
0]
0.
#2024000
b10000000000010 ~"
b0 }"
#2025000
b1 K"
0B"
0n"
0G"
1]
1.
#2026000
b10 1
b10 V
b0 -
b0 U
14
b10 2
b10 W
#2050000
0]
0.
#2075000
1a
1`
b0 ,
b0 y
1G"
1B"
1n"
b10 ("
1)"
b0 &"
1]
1.
#2076000
b10000000000010 3
b10000000000010 X
b0 2
b0 W
#2077000
b11000000100000000100000000 ~"
b10000 }"
#2100000
0]
0.
#2125000
0a
0`
0^"
b10 v
b10 ,"
b10 ]"
0l"
b100000 p
b100000 2"
b100000 j"
b10000000000010 ,
b10000000000010 y
b10 K"
0B"
0n"
0G"
b10000000000010 %"
b0 ("
1]
1.
#2126000
b10000 -
b10000 U
b10 2
b10 W
#2150000
0]
0.
#2175000
1a
1`
b0 ,
b0 y
b10 ("
b10000 &"
1]
1.
#2176000
b11000000100000000100000000 3
b11000000100000000100000000 X
b0 2
b0 W
#2177000
b10100 ~"
b10100 }"
#2200000
0]
0.
#2225000
b10 @"
b11000000100000000100000000 ,
b11000000100000000100000000 y
b10 A"
0a
0`
b1 n
b1 4"
b10 m
b10 5"
b11 l
b11 6"
b11000000100000000100000000 ""
b0 ("
1]
1.
#2226000
b10100 -
b10100 U
b10 2
b10 W
#2250000
0]
0.
#2275000
b0 ,
b0 y
1a
1`
b10 ("
b10100 &"
1]
1.
#2276000
b10100 3
b10100 X
b0 2
b0 W
#2277000
b101 ~"
b11100 }"
#2300000
0]
0.
#2325000
b10100 ,
b10100 y
0a
0`
b10100 k
b10100 7"
b10100 #"
b0 ("
1]
1.
#2326000
b11100 -
b11100 U
b10 2
b10 W
#2350000
0]
0.
#2375000
b0 ,
b0 y
1a
1`
b10 ("
b11100 &"
1]
1.
#2376000
b101 3
b101 X
b0 2
b0 W
#2377000
b11 ~"
b1000 }"
#2400000
0]
0.
#2425000
b101 ,
b101 y
0a
0`
b101 c
b101 /"
b101 |
b0 ("
1]
1.
#2426000
b1000 -
b1000 U
b10 2
b10 W
#2450000
0]
0.
#2475000
1a
b0 ,
b0 y
1`
b10 ("
b1000 &"
1]
1.
#2476000
b11 3
b11 X
b0 2
b0 W
#2500000
0]
0.
#2525000
b1 e"
r1.5 S
1;"
1@
b11 ,
b11 y
0a
1="
b10 *
b10 w
b10 H"
0`
1t
1g
b11 {
b0 ("
1]
1.
#2550000
0]
0.
#2575000
b1 _"
1]
1.
#2600000
0]
0.
#2625000
1^"
b10 _"
1]
1.
#2650000
0]
0.
#2675000
1k"
0^"
b0 _"
1G"
1]
1.
#2700000
0]
0.
#2725000
0k"
b1 J"
0'
b1 i"
b1 m"
0G"
b1 _"
b10 e"
0;"
0="
0L"
1]
1.
#2750000
0]
0.
#2775000
1^"
b10 _"
1]
1.
#2800000
0]
0.
#2825000
1k"
1G"
0^"
b0 _"
1]
1.
#2850000
0]
0.
#2875000
b1111111111 d"
1)
0k"
r1.5 I
b1 _"
0G"
b10 m"
1'
b10 i"
b10 J"
1]
1.
#2900000
0]
0.
#2925000
1^"
b10 _"
1]
1.
#2950000
0]
0.
#2975000
1k"
0^"
b0 _"
1G"
1]
1.
#3000000
0]
0.
#3025000
b1011111111 d"
0)
0k"
b10000000 b"
b0 J"
b11 m"
0G"
b1 _"
b100000000 h"
r1.536 R
b1100000000 +
b1100000000 B
b1100000000 x
b1100000000 *"
b1100000000 C"
b1100000000 O"
b1100000000 c"
b1100000000 f"
1]
1.
#3050000
0]
0.
#3075000
1^"
b10 _"
1]
1.
#3100000
0]
0.
#3125000
1k"
1G"
0^"
b0 _"
1]
1.
#3150000
0]
0.
#3175000
1)
b1111111111 d"
0k"
b1000000 b"
b1 _"
0G"
b100 m"
r1.28 R
b1010000000 +
b1010000000 B
b1010000000 x
b1010000000 *"
b1010000000 C"
b1010000000 O"
b1010000000 c"
b1010000000 f"
b10000000 h"
1]
1.
#3200000
0]
0.
#3225000
1^"
b10 _"
1]
1.
#3250000
0]
0.
#3275000
1k"
0^"
b0 _"
1G"
1]
1.
#3300000
0]
0.
#3325000
0k"
b100000 b"
b101 m"
0G"
b1 _"
b1000000 h"
r1.408 R
b1011000000 +
b1011000000 B
b1011000000 x
b1011000000 *"
b1011000000 C"
b1011000000 O"
b1011000000 c"
b1011000000 f"
1]
1.
#3350000
0]
0.
#3375000
1^"
b10 _"
1]
1.
#3400000
0]
0.
#3425000
1k"
1G"
0^"
b0 _"
1]
1.
#3450000
0]
0.
#3475000
0k"
b10000 b"
b1 _"
0G"
b110 m"
r1.472 R
b1011100000 +
b1011100000 B
b1011100000 x
b1011100000 *"
b1011100000 C"
b1011100000 O"
b1011100000 c"
b1011100000 f"
b100000 h"
1]
1.
#3500000
0]
0.
#3525000
1^"
b10 _"
1]
1.
#3550000
0]
0.
#3575000
1k"
0^"
b0 _"
1G"
1]
1.
#3600000
0]
0.
#3625000
b1111101111 d"
0)
0k"
b1000 b"
b111 m"
0G"
b1 _"
b10000 h"
r1.504 R
b1011110000 +
b1011110000 B
b1011110000 x
b1011110000 *"
b1011110000 C"
b1011110000 O"
b1011110000 c"
b1011110000 f"
1]
1.
#3650000
0]
0.
#3675000
1^"
b10 _"
1]
1.
#3700000
0]
0.
#3725000
1k"
1G"
0^"
b0 _"
1]
1.
#3750000
0]
0.
#3775000
1)
b1111111111 d"
0k"
b100 b"
b1 _"
0G"
b1000 m"
r1.488 R
b1011101000 +
b1011101000 B
b1011101000 x
b1011101000 *"
b1011101000 C"
b1011101000 O"
b1011101000 c"
b1011101000 f"
b1000 h"
1]
1.
#3800000
0]
0.
#3825000
1^"
b10 _"
1]
1.
#3850000
0]
0.
#3875000
1k"
0^"
b0 _"
1G"
1]
1.
#3900000
0]
0.
#3925000
0k"
b10 b"
b1001 m"
0G"
b1 _"
b100 h"
r1.496 R
b1011101100 +
b1011101100 B
b1011101100 x
b1011101100 *"
b1011101100 C"
b1011101100 O"
b1011101100 c"
b1011101100 f"
1]
1.
#3950000
0]
0.
#3975000
1^"
b10 _"
1]
1.
#4000000
0]
0.
#4025000
1k"
1G"
0^"
b0 _"
1]
1.
#4050000
0]
0.
#4075000
b1111111101 d"
0)
0k"
b1 b"
b1 _"
0G"
b1010 m"
r1.5 R
b1011101110 +
b1011101110 B
b1011101110 x
b1011101110 *"
b1011101110 C"
b1011101110 O"
b1011101110 c"
b1011101110 f"
b10 h"
1]
1.
#4100000
0]
0.
#4125000
1^"
b10 _"
1]
1.
#4150000
0]
0.
#4175000
1k"
0^"
b0 _"
1G"
1]
1.
#4200000
0]
0.
#4225000
b1111111111 d"
1)
0k"
b11 e"
b0 b"
b1011 m"
0G"
b1 _"
b1 h"
r1.498 R
b1011101101 +
b1011101101 B
b1011101101 x
b1011101101 *"
b1011101101 C"
b1011101101 O"
b1011101101 c"
b1011101101 f"
1]
1.
#4250000
0]
0.
#4275000
1^"
b10 _"
1]
1.
#4300000
0]
0.
#4325000
1k"
1G"
0^"
b0 _"
1]
1.
#4350000
0]
0.
#4375000
b1 U"
0Q"
b1 Z"
1N"
0k"
10"
b0 e"
b1 _"
0G"
b1100 m"
1Z
1s
b11 i"
b0 h"
1]
1.
#4400000
0]
0.
#4425000
0N"
00"
b1 U"
b1 Z"
b10 \"
1I"
b1 E"
b1 P"
b1 V"
0F"
0R"
b1 ["
1^"
b10 _"
b1011101101 T
b1011101101 u
b1011101101 -"
b1011101101 D"
b1011101101 M"
b100 !"
1]
1.
#4450000
0]
0.
#4475000
1k"
0^"
b0 _"
1G"
1]
1.
#4500000
0]
0.
#4525000
0k"
0Z
0s
b0 i"
b1101 m"
0G"
b1 _"
1]
1.
#4550000
0]
0.
#4575000
1^"
b10 _"
0I"
1]
1.
#4600000
0]
0.
#4625000
1k"
1G"
0^"
b0 _"
1]
1.
#4650000
0]
0.
#4675000
0k"
b100000000 b"
b1 _"
0G"
b1110 m"
r1.024 R
b1000000000 +
b1000000000 B
b1000000000 x
b1000000000 *"
b1000000000 C"
b1000000000 O"
b1000000000 c"
b1000000000 f"
b1000000000 h"
1]
1.
#4700000
0]
0.
#4725000
1^"
b10 _"
1]
1.
#4750000
0]
0.
#4775000
1k"
0^"
b0 _"
1G"
1]
1.
#4800000
0]
0.
#4825000
0k"
b1111 m"
0G"
b1 _"
1]
1.
#4850000
0]
0.
#4875000
1^"
b10 _"
1]
1.
#4900000
0]
0.
#4925000
1k"
1G"
0^"
b0 _"
1]
1.
#4950000
0]
0.
#4975000
0k"
b1 _"
0G"
b10000 m"
1]
1.
#5000000
0]
0.
#5025000
1^"
b10 _"
1]
1.
#5050000
0]
0.
#5075000
1k"
0^"
b0 _"
1G"
1]
1.
#5100000
0]
0.
#5125000
0k"
b10001 m"
0G"
b1 _"
1]
1.
#5150000
0]
0.
#5175000
1^"
b10 _"
1]
1.
#5200000
0]
0.
#5225000
1k"
1G"
0^"
b0 _"
1]
1.
#5250000
0]
0.
#5275000
0k"
b1 _"
0G"
b10010 m"
1]
1.
#5300000
0]
0.
#5325000
1^"
b10 _"
1]
1.
#5350000
0]
0.
#5375000
1k"
0^"
b0 _"
1G"
1]
1.
#5400000
0]
0.
#5425000
0k"
b10011 m"
0G"
b1 _"
1]
1.
#5450000
0]
0.
#5475000
1^"
b10 _"
1]
1.
#5500000
0]
0.
#5525000
1k"
1G"
0^"
b0 _"
1]
1.
#5550000
0]
0.
#5575000
0k"
b1 _"
0G"
b10100 m"
1]
1.
#5600000
0]
0.
#5625000
1^"
b10 _"
1]
1.
#5650000
0]
0.
#5675000
1k"
0^"
b0 _"
1G"
1]
1.
#5700000
0]
0.
#5725000
0k"
b10101 m"
0G"
b1 _"
1]
1.
#5750000
0]
0.
#5775000
1^"
b10 _"
1]
1.
#5800000
0]
0.
#5825000
1k"
1G"
0^"
b0 _"
1]
1.
#5850000
0]
0.
#5875000
0k"
b1 _"
0G"
b10110 m"
1]
1.
#5900000
0]
0.
#5925000
1^"
b10 _"
1]
1.
#5950000
0]
0.
#5975000
1k"
0^"
b0 _"
1G"
1]
1.
#6000000
0]
0.
#6025000
0k"
b10111 m"
0G"
b1 _"
1]
1.
#6050000
0]
0.
#6075000
1^"
b10 _"
1]
1.
#6100000
0]
0.
#6125000
1k"
1G"
0^"
b0 _"
1]
1.
#6150000
0]
0.
#6175000
0k"
b1 _"
0G"
b11000 m"
1]
1.
#6200000
0]
0.
#6225000
1^"
b10 _"
1]
1.
#6250000
0]
0.
#6275000
1k"
0^"
b0 _"
1G"
1]
1.
#6300000
0]
0.
#6325000
0k"
b11001 m"
0G"
b1 _"
1]
1.
#6350000
0]
0.
#6375000
1^"
b10 _"
1]
1.
#6400000
0]
0.
#6425000
1k"
1G"
0^"
b0 _"
1]
1.
#6450000
0]
0.
#6475000
0k"
b1 _"
0G"
b11010 m"
1]
1.
#6500000
0]
0.
#6525000
1^"
b10 _"
1]
1.
#6550000
0]
0.
#6575000
1k"
0^"
b0 _"
1G"
1]
1.
#6600000
0]
0.
#6625000
0k"
b11011 m"
0G"
b1 _"
1]
1.
#6650000
0]
0.
#6675000
1^"
b10 _"
1]
1.
#6700000
0]
0.
#6725000
1k"
1G"
0^"
b0 _"
1]
1.
#6750000
0]
0.
#6775000
0k"
b1 _"
0G"
b11100 m"
1]
1.
#6800000
0]
0.
#6825000
1^"
b10 _"
1]
1.
#6850000
0]
0.
#6875000
1k"
0^"
b0 _"
1G"
1]
1.
#6900000
0]
0.
#6925000
0k"
b11101 m"
0G"
b1 _"
1]
1.
#6950000
0]
0.
#6975000
1^"
b10 _"
1]
1.
#7000000
0]
0.
#7025000
1k"
1G"
0^"
b0 _"
1]
1.
#7050000
0]
0.
#7075000
0k"
b1 _"
0G"
b11110 m"
1]
1.
#7100000
0]
0.
#7125000
1^"
b10 _"
1]
1.
#7150000
0]
0.
#7175000
1k"
0^"
b0 _"
1G"
1]
1.
#7200000
0]
0.
#7225000
0k"
b11111 m"
0G"
b1 _"
1]
1.
#7250000
0]
0.
#7275000
1^"
b10 _"
1]
1.
#7300000
0]
0.
#7325000
1k"
1G"
0^"
b0 _"
1]
1.
#7350000
0]
0.
#7375000
0k"
b1 _"
0G"
1l"
b100000 m"
1]
1.
#7400000
0]
0.
#7425000
1B"
1n"
0l"
b0 m"
1^"
b10 _"
1]
1.
#7450000
0]
0.
#7475000
r2 S
1?
b11 *
b11 w
b11 H"
b11 @"
b11 A"
1k"
0^"
b0 _"
1G"
0B"
0n"
b11 K"
b1 e"
1;"
1="
1L"
1]
1.
#7500000
0]
0.
#7525000
0k"
b1 J"
0'
b1 i"
b1 m"
0G"
b1 _"
b10 e"
0;"
0="
0L"
1]
1.
#7550000
0]
0.
#7575000
1^"
b10 _"
1]
1.
#7600000
0]
0.
#7625000
1k"
1G"
0^"
b0 _"
1]
1.
#7650000
0]
0.
#7675000
0k"
r2 I
b1 _"
0G"
b10 m"
1'
b10 i"
b10 J"
1]
1.
#7700000
0]
0.
#7725000
1^"
b10 _"
1]
1.
#7750000
0]
0.
#7775000
1k"
0^"
b0 _"
1G"
1]
1.
#7800000
0]
0.
#7825000
0k"
b10000000 b"
b0 J"
b11 m"
0G"
b1 _"
b100000000 h"
r1.536 R
b1100000000 +
b1100000000 B
b1100000000 x
b1100000000 *"
b1100000000 C"
b1100000000 O"
b1100000000 c"
b1100000000 f"
1]
1.
#7850000
0]
0.
#7875000
1^"
b10 _"
1]
1.
#7900000
0]
0.
#7925000
1k"
1G"
0^"
b0 _"
1]
1.
#7950000
0]
0.
#7975000
0k"
b1000000 b"
b1 _"
0G"
b100 m"
r1.792 R
b1110000000 +
b1110000000 B
b1110000000 x
b1110000000 *"
b1110000000 C"
b1110000000 O"
b1110000000 c"
b1110000000 f"
b10000000 h"
1]
1.
#8000000
0]
0.
#8025000
1^"
b10 _"
1]
1.
#8050000
0]
0.
#8075000
1k"
0^"
b0 _"
1G"
1]
1.
#8100000
0]
0.
#8125000
0k"
b100000 b"
b101 m"
0G"
b1 _"
b1000000 h"
r1.92 R
b1111000000 +
b1111000000 B
b1111000000 x
b1111000000 *"
b1111000000 C"
b1111000000 O"
b1111000000 c"
b1111000000 f"
1]
1.
#8150000
0]
0.
#8175000
1^"
b10 _"
1]
1.
#8200000
0]
0.
#8225000
1k"
1G"
0^"
b0 _"
1]
1.
#8250000
0]
0.
#8275000
0k"
b10000 b"
b1 _"
0G"
b110 m"
r1.984 R
b1111100000 +
b1111100000 B
b1111100000 x
b1111100000 *"
b1111100000 C"
b1111100000 O"
b1111100000 c"
b1111100000 f"
b100000 h"
1]
1.
#8300000
0]
0.
#8325000
1^"
b10 _"
1]
1.
#8350000
0]
0.
#8375000
1k"
0^"
b0 _"
1G"
1]
1.
#8400000
0]
0.
#8425000
b1111101111 d"
0)
0k"
b1000 b"
b111 m"
0G"
b1 _"
b10000 h"
r2.016 R
b1111110000 +
b1111110000 B
b1111110000 x
b1111110000 *"
b1111110000 C"
b1111110000 O"
b1111110000 c"
b1111110000 f"
1]
1.
#8450000
0]
0.
#8475000
1^"
b10 _"
1]
1.
#8500000
0]
0.
#8525000
1k"
1G"
0^"
b0 _"
1]
1.
#8550000
0]
0.
#8575000
b1111110111 d"
0k"
b100 b"
b1 _"
0G"
b1000 m"
r2 R
b1111101000 +
b1111101000 B
b1111101000 x
b1111101000 *"
b1111101000 C"
b1111101000 O"
b1111101000 c"
b1111101000 f"
b1000 h"
1]
1.
#8600000
0]
0.
#8625000
1^"
b10 _"
1]
1.
#8650000
0]
0.
#8675000
1k"
0^"
b0 _"
1G"
1]
1.
#8700000
0]
0.
#8725000
b1111111111 d"
1)
0k"
b10 b"
b1001 m"
0G"
b1 _"
b100 h"
r1.992 R
b1111100100 +
b1111100100 B
b1111100100 x
b1111100100 *"
b1111100100 C"
b1111100100 O"
b1111100100 c"
b1111100100 f"
1]
1.
#8750000
0]
0.
#8775000
1^"
b10 _"
1]
1.
#8800000
0]
0.
